verilog/coeff/coeff.sim/sim_1/behav/xsim/coeff_tb.vcd
$date
   Fri Aug  2 16:45:41 2019
$end
$version
  2019.1
$end
$timescale
  1ps
$end
$scope module coeff_tb $end
$var reg 1 ! clk $end
$var reg 1 " rst $end
$var wire 32 # coeff_out [31:0] $end
$var parameter 32 $ Nbits [31:0] $end
$scope module dut $end
$var wire 1 % rst $end
$var wire 1 & clk $end
$var reg 32 ' coeff_out [31:0] $end
$var integer 32 ( index $end
$var reg 32 ) w [31:0] $end
$var parameter 32 * Nbits [31:0] $end
$upscope $end
$upscope $end
$enddefinitions $end
#0
$dumpvars
1!
0"
b0 #
b10000 $
1%
1&
b0 '
b0 (
bx00000000 )
b10000 *
$end
#20000
0!
0%
0&
b1 (
#21000
1!
1&
b10 (
#22000
0!
0&
b11 (
#23000
1!
1&
b100 (
#24000
0!
0&
b101 (
#25000
1!
1&
b110 (
#26000
0!
0&
b111 (
#27000
1!
1&
b0 (
#28000
0!
0&
b1 (
#29000
1!
1&
b10 (
#30000
0!
0&
b11 (
#31000
1!
1&
b100 (
#32000
0!
0&
b101 (
#33000
1!
1&
b110 (
#34000
0!
0&
b111 (
#35000
1!
1&
b0 (
#36000
0!
0&
b1 (
#37000
1!
1&
b10 (
#38000
0!
0&
b11 (
#39000
1!
1&
b100 (
#40000
0!
0&
b101 (
#41000
1!
1&
b110 (
#42000
0!
0&
b111 (
#43000
1!
1&
b0 (
#44000
0!
0&
b1 (
#45000
1!
1&
b10 (
#46000
0!
0&
b11 (
#47000
1!
1&
b100 (
#48000
0!
0&
b101 (
#49000
1!
1&
b110 (
#50000
0!
0&
b111 (
#51000
1!
1&
b0 (
#52000
0!
0&
b1 (
#53000
1!
1&
b10 (
#54000
0!
0&
b11 (
#55000
1!
1&
b100 (
#56000
0!
0&
b101 (
#57000
1!
1&
b110 (
#58000
0!
0&
b111 (
#59000
1!
1&
b0 (
#60000
0!
0&
b1 (
#61000
1!
1&
b10 (
#62000
0!
0&
b11 (
#63000
1!
1&
b100 (
#64000
0!
0&
b101 (
#65000
1!
1&
b110 (
#66000
0!
0&
b111 (
#67000
1!
1&
b0 (
#68000
0!
0&
b1 (
#69000
1!
1&
b10 (
#70000
0!
0&
b11 (
#71000
1!
1&
b100 (
#72000
0!
0&
b101 (
#73000
1!
1&
b110 (
#74000
0!
0&
b111 (
#75000
1!
1&
b0 (
#76000
0!
0&
b1 (
#77000
1!
1&
b10 (
#78000
0!
0&
b11 (
#79000
1!
1&
b100 (
#80000
0!
0&
b101 (
#81000
1!
1&
b110 (
#82000
0!
0&
b111 (
#83000
1!
1&
b0 (
#84000
0!
0&
b1 (
#85000
1!
1&
b10 (
#86000
0!
0&
b11 (
#87000
1!
1&
b100 (
#88000
0!
0&
b101 (
#89000
1!
1&
b110 (
#90000
0!
0&
b111 (
#91000
1!
1&
b0 (
#92000
0!
0&
b1 (
#93000
1!
1&
b10 (
#94000
0!
0&
b11 (
#95000
1!
1&
b100 (
#96000
0!
0&
b101 (
#97000
1!
1&
b110 (
#98000
0!
0&
b111 (
#99000
1!
1&
b0 (
#100000
0!
0&
b1 (
#101000
1!
1&
b10 (
#102000
0!
0&
b11 (
#103000
1!
1&
b100 (
#104000
0!
0&
b101 (
#105000
1!
1&
b110 (
#106000
0!
0&
b111 (
#107000
1!
1&
b0 (
#108000
0!
0&
b1 (
#109000
1!
1&
b10 (
#110000
0!
0&
b11 (
#111000
1!
1&
b100 (
#112000
0!
0&
b101 (
#113000
1!
1&
b110 (
#114000
0!
0&
b111 (
#115000
1!
1&
b0 (
#116000
0!
0&
b1 (
#117000
1!
1&
b10 (
#118000
0!
0&
b11 (
#119000
1!
1&
b100 (
#120000
0!
0&
b101 (
#121000
1!
1&
b110 (
#122000
0!
0&
b111 (
#123000
1!
1&
b0 (
#124000
0!
0&
b1 (
#125000
1!
1&
b10 (
#126000
0!
0&
b11 (
#127000
1!
1&
b100 (
#128000
0!
0&
b101 (
#129000
1!
1&
b110 (
#130000
0!
0&
b111 (
#131000
1!
1&
b0 (
#132000
0!
0&
b1 (
#133000
1!
1&
b10 (
#134000
0!
0&
b11 (
#135000
1!
1&
b100 (
#136000
0!
0&
b101 (
#137000
1!
1&
b110 (
#138000
0!
0&
b111 (
#139000
1!
1&
b0 (
#140000
0!
0&
b1 (
#141000
1!
1&
b10 (
#142000
0!
0&
b11 (
#143000
1!
1&
b100 (
#144000
0!
0&
b101 (
#145000
1!
1&
b110 (
#146000
0!
0&
b111 (
#147000
1!
1&
b0 (
#148000
0!
0&
b1 (
#149000
1!
1&
b10 (
#150000
0!
0&
b11 (
#151000
1!
1&
b100 (
#152000
0!
0&
b101 (
#153000
1!
1&
b110 (
#154000
0!
0&
b111 (
#155000
1!
1&
b0 (
#156000
0!
0&
b1 (
#157000
1!
1&
b10 (
#158000
0!
0&
b11 (
#159000
1!
1&
b100 (
#160000
0!
0&
b101 (
#161000
1!
1&
b110 (
#162000
0!
0&
b111 (
#163000
1!
1&
b0 (
#164000
0!
0&
b1 (
#165000
1!
1&
b10 (
#166000
0!
0&
b11 (
#167000
1!
1&
b100 (
#168000
0!
0&
b101 (
#169000
1!
1&
b110 (
#170000
0!
0&
b111 (
#171000
1!
1&
b0 (
#172000
0!
0&
b1 (
#173000
1!
1&
b10 (
#174000
0!
0&
b11 (
#175000
1!
1&
b100 (
#176000
0!
0&
b101 (
#177000
1!
1&
b110 (
#178000
0!
0&
b111 (
#179000
1!
1&
b0 (
#180000
0!
0&
b1 (
#181000
1!
1&
b10 (
#182000
0!
0&
b11 (
#183000
1!
1&
b100 (
#184000
0!
0&
b101 (
#185000
1!
1&
b110 (
#186000
0!
0&
b111 (
#187000
1!
1&
b0 (
#188000
0!
0&
b1 (
#189000
1!
1&
b10 (
#190000
0!
0&
b11 (
#191000
1!
1&
b100 (
#192000
0!
0&
b101 (
#193000
1!
1&
b110 (
#194000
0!
0&
b111 (
#195000
1!
1&
b0 (
#196000
0!
0&
b1 (
#197000
1!
1&
b10 (
#198000
0!
0&
b11 (
#199000
1!
1&
b100 (
#200000
0!
0&
b101 (
#201000
1!
1&
b110 (
#202000
0!
0&
b111 (
#203000
1!
1&
b0 (
#204000
0!
0&
b1 (
#205000
1!
1&
b10 (
#206000
0!
0&
b11 (
#207000
1!
1&
b100 (
#208000
0!
0&
b101 (
#209000
1!
1&
b110 (
#210000
0!
0&
b111 (
#211000
1!
1&
b0 (
#212000
0!
0&
b1 (
#213000
1!
1&
b10 (
#214000
0!
0&
b11 (
#215000
1!
1&
b100 (
#216000
0!
0&
b101 (
#217000
1!
1&
b110 (
#218000
0!
0&
b111 (
#219000
1!
1&
b0 (
