verilog/topfft/topfft.sim/sim_1/behav/xsim/topfft_tb.vcd
$date
   Wed Aug  7 00:15:34 2019
$end
$version
  2019.1
$end
$timescale
  1ps
$end
$scope module topfft_tb $end
$var reg 1 ! clk $end
$var reg 1 " rst $end
$var reg 4 # fftIn_up [3:0] $end
$var reg 4 $ fftIn_down [3:0] $end
$var wire 4 % fftOut_up [3:0] $end
$var wire 4 & fftOut_down [3:0] $end
$var parameter 32 ' Nbits [31:0] $end
$var parameter 32 ( N [31:0] $end
$scope module dut $end
$var wire 4 ) coefficientes0 [3:0] $end
$var wire 4 * coefficientes1 [3:0] $end
$var wire 4 + coefficientes2 [3:0] $end
$var wire 4 , coefficientes3 [3:0] $end
$var wire 4 - coefficientes4 [3:0] $end
$var wire 4 . fftIn_up [3:0] $end
$var wire 4 / fftIn_down [3:0] $end
$var wire 4 % fftOut_up [3:0] $end
$var wire 4 & fftOut_down [3:0] $end
$var wire 1 0 clk $end
$var wire 1 1 rst $end
$var wire 1 2 ctrl_1 $end
$var wire 1 3 ctrl_2 $end
$var wire 1 4 ctrl_4 $end
$var parameter 32 5 Nbits [31:0] $end
$var parameter 32 6 N [31:0] $end
$scope module control_4 $end
$var wire 1 0 clk_in $end
$var wire 1 1 rst $end
$var reg 1 7 clk_out $end
$var reg 23 8 count [22:0] $end
$var parameter 32 9 N [31:0] $end
$upscope $end
$scope module control_2 $end
$var wire 1 0 clk_in $end
$var wire 1 1 rst $end
$var reg 1 : clk_out $end
$var reg 23 ; count [22:0] $end
$var parameter 32 < N [31:0] $end
$upscope $end
$scope module control_1 $end
$var wire 1 0 clk_in $end
$var wire 1 1 rst $end
$var reg 1 = clk_out $end
$var reg 23 > count [22:0] $end
$var parameter 32 ? N [31:0] $end
$upscope $end
$scope module Blq_BFI $end
$var wire 4 @ BlqIn_up [3:0] $end
$var wire 4 A BlqIn_down [3:0] $end
$var wire 4 B BlqOut_up [3:0] $end
$var wire 4 C BlqOut_down [3:0] $end
$var wire 1 0 clk $end
$var wire 1 1 rst $end
$var wire 1 4 ctrl $end
$var parameter 32 D ND0 [31:0] $end
$var parameter 32 E ND1 [31:0] $end
$var parameter 32 F Nbits [31:0] $end
$scope module DA $end
$var wire 4 G D [3:0] $end
$var wire 4 H Q [3:0] $end
$var wire 1 1 rst $end
$var wire 1 0 clk $end
$var parameter 32 I ND [31:0] $end
$var parameter 32 J Nbits [31:0] $end
$scope module Dgen[1].nD $end
$var wire 4 K D [3:0] $end
$var reg 4 L Q [3:0] $end
$var wire 1 1 rst $end
$var wire 1 0 clk $end
$var parameter 32 M Nbits [31:0] $end
$upscope $end
$scope module Dgen[2].nD $end
$var wire 4 N D [3:0] $end
$var reg 4 O Q [3:0] $end
$var wire 1 1 rst $end
$var wire 1 0 clk $end
$var parameter 32 P Nbits [31:0] $end
$upscope $end
$scope module Dgen[3].nD $end
$var wire 4 Q D [3:0] $end
$var reg 4 R Q [3:0] $end
$var wire 1 1 rst $end
$var wire 1 0 clk $end
$var parameter 32 S Nbits [31:0] $end
$upscope $end
$scope module Dgen[4].nD $end
$var wire 4 T D [3:0] $end
$var reg 4 U Q [3:0] $end
$var wire 1 1 rst $end
$var wire 1 0 clk $end
$var parameter 32 V Nbits [31:0] $end
$upscope $end
$upscope $end
$scope module sw0 $end
$var wire 4 W swIn_up [3:0] $end
$var wire 4 H swIn_down [3:0] $end
$var wire 4 X swOut_up [3:0] $end
$var wire 4 Y swOut_down [3:0] $end
$var wire 1 4 ctrl $end
$var parameter 32 Z Nbits [31:0] $end
$upscope $end
$scope module DB $end
$var wire 4 X D [3:0] $end
$var wire 4 [ Q [3:0] $end
$var wire 1 1 rst $end
$var wire 1 0 clk $end
$var parameter 32 \ ND [31:0] $end
$var parameter 32 ] Nbits [31:0] $end
$scope module Dgen[1].nD $end
$var wire 4 ^ D [3:0] $end
$var reg 4 _ Q [3:0] $end
$var wire 1 1 rst $end
$var wire 1 0 clk $end
$var parameter 32 ` Nbits [31:0] $end
$upscope $end
$scope module Dgen[2].nD $end
$var wire 4 a D [3:0] $end
$var reg 4 b Q [3:0] $end
$var wire 1 1 rst $end
$var wire 1 0 clk $end
$var parameter 32 c Nbits [31:0] $end
$upscope $end
$scope module Dgen[3].nD $end
$var wire 4 d D [3:0] $end
$var reg 4 e Q [3:0] $end
$var wire 1 1 rst $end
$var wire 1 0 clk $end
$var parameter 32 f Nbits [31:0] $end
$upscope $end
$scope module Dgen[4].nD $end
$var wire 4 g D [3:0] $end
$var reg 4 h Q [3:0] $end
$var wire 1 1 rst $end
$var wire 1 0 clk $end
$var parameter 32 i Nbits [31:0] $end
$upscope $end
$upscope $end
$scope module I $end
$var wire 4 [ BFIn_up [3:0] $end
$var wire 4 Y BFIn_down [3:0] $end
$var wire 4 B BFOut_up [3:0] $end
$var wire 4 C BFOut_down [3:0] $end
$var parameter 32 j Nbits [31:0] $end
$upscope $end
$upscope $end
$scope module Mcoeff0 $end
$var wire 1 1 rst $end
$var wire 1 0 clk $end
$var reg 4 k coeff_out [3:0] $end
$var reg 23 l index [22:0] $end
$var wire 32 m coeff [31:0] $end
$var parameter 32 n Nbits [31:0] $end
$var parameter 32 o N [31:0] $end
$scope module coefficientes $end
$var reg 32 p coeff_data [31:0] $end
$var parameter 32 q Nbits [31:0] $end
$var parameter 32 r N [31:0] $end
$upscope $end
$upscope $end
$scope module M0 $end
$var wire 4 C muestra [3:0] $end
$var wire 4 ) coeff [3:0] $end
$var wire 4 s result [3:0] $end
$var parameter 32 t Nbits [31:0] $end
$upscope $end
$scope module Blq_BFII $end
$var wire 4 u BlqIn_up [3:0] $end
$var wire 4 s BlqIn_down [3:0] $end
$var wire 4 v BlqOut_up [3:0] $end
$var wire 4 w BlqOut_down [3:0] $end
$var wire 1 0 clk $end
$var wire 1 1 rst $end
$var wire 1 3 ctrl $end
$var parameter 32 x ND0 [31:0] $end
$var parameter 32 y ND1 [31:0] $end
$var parameter 32 z Nbits [31:0] $end
$scope module DA $end
$var wire 4 { D [3:0] $end
$var wire 4 | Q [3:0] $end
$var wire 1 1 rst $end
$var wire 1 0 clk $end
$var parameter 32 } ND [31:0] $end
$var parameter 32 ~ Nbits [31:0] $end
$scope module Dgen[1].nD $end
$var wire 4 !! D [3:0] $end
$var reg 4 "! Q [3:0] $end
$var wire 1 1 rst $end
$var wire 1 0 clk $end
$var parameter 32 #! Nbits [31:0] $end
$upscope $end
$scope module Dgen[2].nD $end
$var wire 4 $! D [3:0] $end
$var reg 4 %! Q [3:0] $end
$var wire 1 1 rst $end
$var wire 1 0 clk $end
$var parameter 32 &! Nbits [31:0] $end
$upscope $end
$upscope $end
$scope module sw0 $end
$var wire 4 '! swIn_up [3:0] $end
$var wire 4 | swIn_down [3:0] $end
$var wire 4 (! swOut_up [3:0] $end
$var wire 4 )! swOut_down [3:0] $end
$var wire 1 3 ctrl $end
$var parameter 32 *! Nbits [31:0] $end
$upscope $end
$scope module DB $end
$var wire 4 (! D [3:0] $end
$var wire 4 +! Q [3:0] $end
$var wire 1 1 rst $end
$var wire 1 0 clk $end
$var parameter 32 ,! ND [31:0] $end
$var parameter 32 -! Nbits [31:0] $end
$scope module Dgen[1].nD $end
$var wire 4 .! D [3:0] $end
$var reg 4 /! Q [3:0] $end
$var wire 1 1 rst $end
$var wire 1 0 clk $end
$var parameter 32 0! Nbits [31:0] $end
$upscope $end
$scope module Dgen[2].nD $end
$var wire 4 1! D [3:0] $end
$var reg 4 2! Q [3:0] $end
$var wire 1 1 rst $end
$var wire 1 0 clk $end
$var parameter 32 3! Nbits [31:0] $end
$upscope $end
$upscope $end
$scope module I $end
$var wire 4 +! BFIn_up [3:0] $end
$var wire 4 )! BFIn_down [3:0] $end
$var wire 4 v BFOut_up [3:0] $end
$var wire 4 w BFOut_down [3:0] $end
$var parameter 32 4! Nbits [31:0] $end
$upscope $end
$upscope $end
$scope module Mcoeff1 $end
$var wire 1 1 rst $end
$var wire 1 0 clk $end
$var reg 4 5! coeff_out [3:0] $end
$var reg 23 6! index [22:0] $end
$var wire 32 7! coeff [31:0] $end
$var parameter 32 8! Nbits [31:0] $end
$var parameter 32 9! N [31:0] $end
$scope module coefficientes $end
$var reg 32 :! coeff_data [31:0] $end
$var parameter 32 ;! Nbits [31:0] $end
$var parameter 32 <! N [31:0] $end
$upscope $end
$upscope $end
$scope module Mcoeff2 $end
$var wire 1 1 rst $end
$var wire 1 0 clk $end
$var reg 4 =! coeff_out [3:0] $end
$var reg 23 >! index [22:0] $end
$var wire 32 ?! coeff [31:0] $end
$var parameter 32 @! Nbits [31:0] $end
$var parameter 32 A! N [31:0] $end
$scope module coefficientes $end
$var reg 32 B! coeff_data [31:0] $end
$var parameter 32 C! Nbits [31:0] $end
$var parameter 32 D! N [31:0] $end
$upscope $end
$upscope $end
$scope module M1 $end
$var wire 4 v muestra [3:0] $end
$var wire 4 * coeff [3:0] $end
$var wire 4 E! result [3:0] $end
$var parameter 32 F! Nbits [31:0] $end
$upscope $end
$scope module M2 $end
$var wire 4 w muestra [3:0] $end
$var wire 4 + coeff [3:0] $end
$var wire 4 G! result [3:0] $end
$var parameter 32 H! Nbits [31:0] $end
$upscope $end
$scope module Blq_BFIII $end
$var wire 4 E! BlqIn_up [3:0] $end
$var wire 4 G! BlqIn_down [3:0] $end
$var wire 4 I! BlqOut_up [3:0] $end
$var wire 4 J! BlqOut_down [3:0] $end
$var wire 1 0 clk $end
$var wire 1 1 rst $end
$var wire 1 2 ctrl $end
$var parameter 32 K! ND0 [31:0] $end
$var parameter 32 L! ND1 [31:0] $end
$var parameter 32 M! Nbits [31:0] $end
$scope module DA $end
$var wire 4 N! D [3:0] $end
$var wire 4 O! Q [3:0] $end
$var wire 1 1 rst $end
$var wire 1 0 clk $end
$var parameter 32 P! ND [31:0] $end
$var parameter 32 Q! Nbits [31:0] $end
$scope module Dgen[1].nD $end
$var wire 4 R! D [3:0] $end
$var reg 4 S! Q [3:0] $end
$var wire 1 1 rst $end
$var wire 1 0 clk $end
$var parameter 32 T! Nbits [31:0] $end
$upscope $end
$upscope $end
$scope module sw0 $end
$var wire 4 U! swIn_up [3:0] $end
$var wire 4 O! swIn_down [3:0] $end
$var wire 4 V! swOut_up [3:0] $end
$var wire 4 W! swOut_down [3:0] $end
$var wire 1 2 ctrl $end
$var parameter 32 X! Nbits [31:0] $end
$upscope $end
$scope module DB $end
$var wire 4 V! D [3:0] $end
$var wire 4 Y! Q [3:0] $end
$var wire 1 1 rst $end
$var wire 1 0 clk $end
$var parameter 32 Z! ND [31:0] $end
$var parameter 32 [! Nbits [31:0] $end
$scope module Dgen[1].nD $end
$var wire 4 \! D [3:0] $end
$var reg 4 ]! Q [3:0] $end
$var wire 1 1 rst $end
$var wire 1 0 clk $end
$var parameter 32 ^! Nbits [31:0] $end
$upscope $end
$upscope $end
$scope module I $end
$var wire 4 Y! BFIn_up [3:0] $end
$var wire 4 W! BFIn_down [3:0] $end
$var wire 4 I! BFOut_up [3:0] $end
$var wire 4 J! BFOut_down [3:0] $end
$var parameter 32 _! Nbits [31:0] $end
$upscope $end
$upscope $end
$scope module Mcoeff3 $end
$var wire 1 1 rst $end
$var wire 1 0 clk $end
$var reg 4 `! coeff_out [3:0] $end
$var reg 23 a! index [22:0] $end
$var wire 32 b! coeff [31:0] $end
$var parameter 32 c! Nbits [31:0] $end
$var parameter 32 d! N [31:0] $end
$scope module coefficientes $end
$var reg 32 e! coeff_data [31:0] $end
$var parameter 32 f! Nbits [31:0] $end
$var parameter 32 g! N [31:0] $end
$upscope $end
$upscope $end
$scope module Mcoeff4 $end
$var wire 1 1 rst $end
$var wire 1 0 clk $end
$var reg 4 h! coeff_out [3:0] $end
$var reg 23 i! index [22:0] $end
$var wire 32 j! coeff [31:0] $end
$var parameter 32 k! Nbits [31:0] $end
$var parameter 32 l! N [31:0] $end
$scope module coefficientes $end
$var reg 32 m! coeff_data [31:0] $end
$var parameter 32 n! Nbits [31:0] $end
$var parameter 32 o! N [31:0] $end
$upscope $end
$upscope $end
$scope module M3 $end
$var wire 4 I! muestra [3:0] $end
$var wire 4 , coeff [3:0] $end
$var wire 4 p! result [3:0] $end
$var parameter 32 q! Nbits [31:0] $end
$upscope $end
$scope module M4 $end
$var wire 4 J! muestra [3:0] $end
$var wire 4 - coeff [3:0] $end
$var wire 4 r! result [3:0] $end
$var parameter 32 s! Nbits [31:0] $end
$upscope $end
$scope module Blq_BFIV $end
$var wire 4 p! BlqIn_up [3:0] $end
$var wire 4 r! BlqIn_down [3:0] $end
$var wire 4 t! BlqOut_up [3:0] $end
$var wire 4 u! BlqOut_down [3:0] $end
$var wire 1 0 clk $end
$var wire 1 1 rst $end
$var wire 1 4 ctrl $end
$var parameter 32 v! ND0 [31:0] $end
$var parameter 32 w! ND1 [31:0] $end
$var parameter 32 x! Nbits [31:0] $end
$scope module DA $end
$var wire 4 y! D [3:0] $end
$var wire 4 z! Q [3:0] $end
$var wire 1 1 rst $end
$var wire 1 0 clk $end
$var parameter 32 {! ND [31:0] $end
$var parameter 32 |! Nbits [31:0] $end
$scope module Dgen[1].nD $end
$var wire 4 }! D [3:0] $end
$var reg 4 ~! Q [3:0] $end
$var wire 1 1 rst $end
$var wire 1 0 clk $end
$var parameter 32 !" Nbits [31:0] $end
$upscope $end
$scope module Dgen[2].nD $end
$var wire 4 "" D [3:0] $end
$var reg 4 #" Q [3:0] $end
$var wire 1 1 rst $end
$var wire 1 0 clk $end
$var parameter 32 $" Nbits [31:0] $end
$upscope $end
$scope module Dgen[3].nD $end
$var wire 4 %" D [3:0] $end
$var reg 4 &" Q [3:0] $end
$var wire 1 1 rst $end
$var wire 1 0 clk $end
$var parameter 32 '" Nbits [31:0] $end
$upscope $end
$scope module Dgen[4].nD $end
$var wire 4 (" D [3:0] $end
$var reg 4 )" Q [3:0] $end
$var wire 1 1 rst $end
$var wire 1 0 clk $end
$var parameter 32 *" Nbits [31:0] $end
$upscope $end
$upscope $end
$scope module sw0 $end
$var wire 4 +" swIn_up [3:0] $end
$var wire 4 z! swIn_down [3:0] $end
$var wire 4 ," swOut_up [3:0] $end
$var wire 4 -" swOut_down [3:0] $end
$var wire 1 4 ctrl $end
$var parameter 32 ." Nbits [31:0] $end
$upscope $end
$scope module DB $end
$var wire 4 ," D [3:0] $end
$var wire 4 /" Q [3:0] $end
$var wire 1 1 rst $end
$var wire 1 0 clk $end
$var parameter 32 0" ND [31:0] $end
$var parameter 32 1" Nbits [31:0] $end
$scope module Dgen[1].nD $end
$var wire 4 2" D [3:0] $end
$var reg 4 3" Q [3:0] $end
$var wire 1 1 rst $end
$var wire 1 0 clk $end
$var parameter 32 4" Nbits [31:0] $end
$upscope $end
$scope module Dgen[2].nD $end
$var wire 4 5" D [3:0] $end
$var reg 4 6" Q [3:0] $end
$var wire 1 1 rst $end
$var wire 1 0 clk $end
$var parameter 32 7" Nbits [31:0] $end
$upscope $end
$scope module Dgen[3].nD $end
$var wire 4 8" D [3:0] $end
$var reg 4 9" Q [3:0] $end
$var wire 1 1 rst $end
$var wire 1 0 clk $end
$var parameter 32 :" Nbits [31:0] $end
$upscope $end
$scope module Dgen[4].nD $end
$var wire 4 ;" D [3:0] $end
$var reg 4 <" Q [3:0] $end
$var wire 1 1 rst $end
$var wire 1 0 clk $end
$var parameter 32 =" Nbits [31:0] $end
$upscope $end
$upscope $end
$scope module I $end
$var wire 4 /" BFIn_up [3:0] $end
$var wire 4 -" BFIn_down [3:0] $end
$var wire 4 t! BFOut_up [3:0] $end
$var wire 4 u! BFOut_down [3:0] $end
$var parameter 32 >" Nbits [31:0] $end
$upscope $end
$upscope $end
$upscope $end
$upscope $end
$enddefinitions $end
#0
$dumpvars
1!
bx !!
b10 !"
0"
bx "!
bx ""
b1111 #
b10 #!
bx #"
b1111 $
bx $!
b10 $"
bx %
bx %!
bx %"
bx &
b10 &!
bx &"
b10 '
bx '!
b10 '"
b1000 (
bx (!
bx ("
b100 )
bx )!
bx )"
b100 *
b10 *!
b10 *"
b100 +
bx +!
bx +"
b100 ,
b10 ,!
bx ,"
b100 -
b10 -!
bx -"
bx .
bx .!
b10 ."
bx /
bx /!
b0 /"
10
b10 0!
b100 0"
01
bx 1!
b10 1"
12
bx 2!
bx 2"
03
b10 3!
bx 3"
14
b10 4!
b10 4"
b10 5
b100 5!
bx 5"
b1000 6
b101 6!
b0 6"
17
b1001000110100010101100111 7!
b10 7"
b1 8
b10 8!
b0 8"
b100 9
b1000 9!
b0 9"
0:
b1001000110100010101100111 :!
b10 :"
b1 ;
b10 ;!
b0 ;"
b10 <
b1000 <!
b0 <"
1=
b100 =!
b10 ="
b0 >
b101 >!
b10 >"
b1 ?
b1001000110100010101100111 ?!
bx @
b10 @!
bx A
b1000 A!
bx B
b1001000110100010101100111 B!
bx C
b10 C!
b100 D
b1000 D!
b100 E
bx E!
b10 F
b10 F!
bx G
bx G!
bx H
b10 H!
b100 I
bx I!
b10 J
bx J!
bx K
b1 K!
bx L
b1 L!
b10 M
b10 M!
bx N
bx N!
bx O
bx O!
b10 P
b1 P!
bx Q
b10 Q!
bx R
bx R!
b10 S
bx S!
bx T
b10 T!
bx U
bx U!
b10 V
bx V!
bx W
bx W!
bx X
b10 X!
bx Y
bx Y!
b10 Z
b1 Z!
b0 [
b10 [!
b100 \
bx \!
b10 ]
bx ]!
bx ^
b10 ^!
bx _
b10 _!
b10 `
b100 `!
bx a
b101 a!
b0 b
b1001000110100010101100111 b!
b10 c
b10 c!
b0 d
b1000 d!
b0 e
b1001000110100010101100111 e!
b10 f
b10 f!
b0 g
b1000 g!
b0 h
b100 h!
b10 i
b101 i!
b10 j
b1001000110100010101100111 j!
b100 k
b10 k!
b101 l
b1000 l!
b1001000110100010101100111 m
b1001000110100010101100111 m!
b10 n
b10 n!
b1000 o
b1000 o!
b1001000110100010101100111 p
bx p!
b10 q
b10 q!
b1000 r
bx r!
bx s
b10 s!
b10 t
bx t!
bx u
bx u!
bx v
b100 v!
bx w
b100 w!
b10 x
b10 x!
b10 y
bx y!
b10 z
bx z!
bx {
b100 {!
bx |
b10 |!
b10 }
bx }!
b10 ~
bx ~!
$end
#30000
0!
b1111 .
b1111 /
00
b1111 @
b1111 A
b1111 G
b1111 K
b1111 W
b1111 X
bx Y
b1111 ^
#31000
1!
bx (!
b101 )
bx )!
b101 *
b101 +
b101 ,
b101 -
10
02
13
b101 5!
b110 6!
bx 6"
b10 8
bx 8"
1:
b0 ;
0=
b101 =!
b110 >!
bx E!
bx G!
b1111 L
b1111 N
bx V!
bx W!
b1111 _
b101 `!
b1111 a
b110 a!
bx b
bx d
b101 h!
b110 i!
b101 k
b110 l
bx p!
bx r!
bx s
#32000
0!
00
#33000
1!
b110 )
b110 *
b110 +
b110 ,
b110 -
10
12
b110 5!
b111 6!
b11 8
bx 9"
b1 ;
bx ;"
1=
b110 =!
b111 >!
bx E!
bx G!
b1111 O
b1111 Q
bx V!
bx W!
b110 `!
b111 a!
b1111 b
b1111 d
bx e
bx g
b110 h!
b111 i!
b110 k
b111 l
bx p!
bx r!
bx s
#34000
0!
00
#35000
1!
bx !!
bx '!
bx (!
b111 )
bx )!
b111 *
b111 +
b111 ,
bx ,"
b111 -
bx -"
bx /"
10
02
03
04
b111 5!
b1000 6!
07
b0 8
0:
b0 ;
bx <"
0=
b111 =!
b1000 >!
bx B
bx C
bx E!
bx G!
b1111 R
b1111 T
bx V!
bx W!
bx X
b1111 Y
bx [
bx ^
b111 `!
b1000 a!
b1111 e
b1111 g
bx h
b111 h!
b1000 i!
b111 k
b1000 l
bx p!
bx r!
bx s
bx u
bx {
#36000
0!
00
#37000
1!
b0 !!
b1010 '!
bx (!
b0 )
b1010 )!
b0 *
b0 +
b0 ,
b0 -
10
12
b0 5!
b0 6!
b1 8
b1 ;
1=
b0 =!
b0 >!
b1010 B
b0 C
bx E!
bx G!
b1111 H
b1111 U
bx V!
bx W!
b1111 X
b1111 Y
b1111 [
b1111 ^
bx _
b0 `!
bx a
b0 a!
b1111 h
b0 h!
b0 i!
b0 k
b0 l
bx p!
bx r!
b0 s
b1010 u
b0 {
#38000
0!
00
#39000
1!
b0 "!
b0 $!
b1010 (!
bx )!
b1010 .!
10
02
13
b0 5!
b1 6!
b10 8
1:
b0 ;
0=
b0 =!
b1 >!
bx V!
bx W!
b1111 _
b0 `!
b1111 a
b1 a!
bx b
bx d
b0 h!
b1 i!
b0 k
b1 l
#40000
0!
00
#41000
1!
b0 %!
b1010 (!
b1 )
b0 )!
b1 *
b1 +
b1 ,
b1 -
b1010 /!
10
b1010 1!
12
b1 5!
b10 6!
b11 8
b1 ;
1=
b1 =!
b10 >!
bx E!
bx G!
bx V!
bx W!
b1 `!
b10 a!
b1111 b
b1111 d
bx e
bx g
b1 h!
b10 i!
b1 k
b10 l
bx p!
bx r!
b0 s
b0 |
#42000
0!
00
#43000
1!
bx !!
bx '!
b0 (!
b10 )
bx )!
b10 *
b10 +
b1010 +!
b10 ,
bx ,"
b10 -
bx -"
b0 .!
10
02
b1010 2!
03
14
b10 5!
b11 6!
17
b0 8
0:
b0 ;
0=
b10 =!
b11 >!
bx B
bx C
bx E!
bx G!
bx N!
bx R!
bx U!
bx V!
bx W!
b1111 X
b1111 Y
bx [
b10 `!
b11 a!
b1111 e
b1111 g
bx h
b10 h!
b11 i!
b10 k
b11 l
bx p!
bx r!
bx s
bx u
bx v
bx w
bx {
#44000
0!
00
#45000
1!
b0 !!
bx "!
bx $!
b1010 '!
b0 (!
b11 )
b1010 )!
b11 *
b11 +
b11 ,
b11 -
b0 /!
10
b0 1!
12
b11 5!
b100 6!
b1 8
b1 ;
1=
b11 =!
b100 >!
b1010 B
b0 C
b0 E!
b0 G!
b0 N!
b0 R!
b0 U!
b0 V!
bx W!
b1111 [
b0 \!
b11 `!
b100 a!
b1111 h
b11 h!
b100 i!
b11 k
b100 l
bx p!
bx r!
b0 s
b1010 u
b0 v
b0 w
b0 {
#46000
0!
00
#47000
1!
b0 "!
b0 $!
bx %!
b1010 (!
b100 )
bx )!
b100 *
b100 +
b0 +!
bx +"
b100 ,
bx ,"
b100 -
bx -"
b1010 .!
10
02
b0 2!
bx 2"
13
b100 5!
b101 6!
b10 8
1:
b0 ;
0=
b100 =!
b101 >!
bx E!
bx G!
bx I!
bx J!
bx N!
b0 O!
bx R!
b0 S!
bx U!
b0 V!
bx W!
b0 Y!
b0 \!
b0 ]!
b100 `!
b101 a!
b100 h!
b101 i!
b100 k
b101 l
bx p!
bx r!
b0 s
bx v
bx w
bx y!
bx |
bx }!
#48000
0!
00
#49000
1!
b0 %!
b1010 (!
b101 )
b0 )!
b101 *
b101 +
bx +"
b101 ,
bx ,"
b101 -
bx -"
b1010 /!
10
b1010 1!
12
bx 2"
b101 5!
b110 6!
b11 8
b1 ;
1=
b101 =!
b110 >!
b0 E!
b0 G!
bx I!
bx J!
b0 N!
bx O!
b0 R!
bx S!
b0 U!
b0 V!
bx W!
b0 \!
b101 `!
b110 a!
b101 h!
b110 i!
b101 k
b110 l
bx p!
bx r!
b0 s
b0 v
b0 w
bx y!
b0 |
bx }!
#50000
0!
00
#51000
1!
b0 (!
b110 )
b1010 )!
b110 *
b110 +
b1010 +!
b0 +"
b110 ,
bx ,"
b110 -
b0 -"
b0 .!
10
02
b1010 2!
03
04
b110 5!
b111 6!
07
b0 8
0:
b0 ;
0=
b110 =!
b111 >!
b0 E!
b0 G!
b0 I!
b0 J!
b0 N!
b0 O!
b0 R!
b0 S!
b0 U!
b0 V!
b0 W!
b1111 X
b1111 Y
b0 \!
b110 `!
b111 a!
b110 h!
b111 i!
b110 k
b111 l
b0 p!
b0 r!
b0 s
b0 v
b0 w
b0 y!
b0 }!
#52000
0!
00
#53000
1!
b0 ""
b111 )
b111 *
b111 +
b111 ,
b111 -
b0 /!
10
b0 1!
12
b111 5!
b1000 6!
b1 8
b1 ;
1=
b111 =!
b1000 >!
b0 E!
b0 G!
b0 V!
b0 W!
b111 `!
b1000 a!
b111 h!
b1000 i!
b111 k
b1000 l
b0 p!
b0 r!
b0 s
b0 ~!
#54000
0!
00
#55000
1!
b0 #"
b0 %"
b1010 (!
b0 )
b0 )!
b0 *
b0 +
b0 +!
b0 +"
b0 ,
bx ,"
b0 -
b0 -"
b1010 .!
10
02
b0 2!
13
b0 5!
b0 6!
b10 8
1:
b0 ;
0=
b0 =!
b0 >!
b0 E!
b0 G!
b0 I!
b0 J!
b0 N!
b0 R!
b0 U!
b0 V!
b0 W!
b0 `!
b0 a!
b0 h!
b0 i!
b0 k
b0 l
b0 p!
b0 r!
b0 s
b0 v
b0 w
b0 y!
b0 }!
#56000
0!
00
#57000
1!
b0 &"
b0 ("
b1010 /!
10
b1010 1!
12
b0 5!
b1 6!
b11 8
b1 ;
1=
b0 =!
b1 >!
b0 V!
b0 W!
b0 `!
b1 a!
b0 h!
b1 i!
b0 k
b1 l
#58000
0!
00
#59000
1!
b0 (!
b1 )
b1010 )!
b0 )"
b1 *
b1 +
b1010 +!
b0 +"
b1 ,
b0 ,"
b1 -
b0 -"
b0 .!
10
02
b1010 2!
b0 2"
03
14
b1 5!
b10 6!
17
b0 8
0:
b0 ;
0=
b1 =!
b10 >!
b0 E!
b0 G!
b0 I!
b0 J!
b0 N!
b0 R!
b0 U!
b0 V!
b0 W!
b1111 X
b1111 Y
b1 `!
b10 a!
b1 h!
b10 i!
b1 k
b10 l
b0 p!
b0 r!
b0 s
b0 v
b0 w
b0 y!
b0 z!
b0 }!
#60000
0!
00
#61000
1!
b10 )
b10 *
b10 +
b10 ,
b10 -
b0 /!
10
b0 1!
12
b0 3"
b10 5!
b0 5"
b11 6!
b1 8
b1 ;
1=
b10 =!
b11 >!
b0 E!
b0 G!
b0 V!
b0 W!
b10 `!
b11 a!
b10 h!
b11 i!
b10 k
b11 l
b0 p!
b0 r!
b0 s
#62000
0!
00
#63000
1!
b1010 (!
b11 )
b0 )!
b11 *
b11 +
b0 +!
b0 +"
b11 ,
b0 ,"
b11 -
b0 -"
b1010 .!
10
02
b0 2!
b0 2"
13
b11 5!
b100 6!
b0 6"
b10 8
b0 8"
1:
b0 ;
0=
b11 =!
b100 >!
b0 E!
b0 G!
b0 I!
b0 J!
b0 N!
b0 R!
b0 U!
b0 V!
b0 W!
b11 `!
b100 a!
b11 h!
b100 i!
b11 k
b100 l
b0 p!
b0 r!
b0 s
b0 v
b0 w
b0 y!
b0 }!
#64000
0!
00
#65000
1!
b100 )
b100 *
b100 +
b100 ,
b100 -
b1010 /!
10
b1010 1!
12
b100 5!
b101 6!
b11 8
b0 9"
b1 ;
b0 ;"
1=
b100 =!
b101 >!
b0 E!
b0 G!
b0 V!
b0 W!
b100 `!
b101 a!
b100 h!
b101 i!
b100 k
b101 l
b0 p!
b0 r!
b0 s
#66000
0!
00
#67000
1!
b0 %
b0 &
b0 (!
b101 )
b1010 )!
b101 *
b101 +
b1010 +!
b0 +"
b101 ,
b0 ,"
b101 -
b0 -"
b0 .!
b0 /"
10
02
b1010 2!
03
04
b101 5!
b110 6!
07
b0 8
0:
b0 ;
b0 <"
0=
b101 =!
b110 >!
b0 E!
b0 G!
b0 I!
b0 J!
b0 N!
b0 R!
b0 U!
b0 V!
b0 W!
b1111 X
b1111 Y
b101 `!
b110 a!
b101 h!
b110 i!
b101 k
b110 l
b0 p!
b0 r!
b0 s
b0 t!
b0 u!
b0 v
b0 w
b0 y!
b0 }!
#68000
0!
00
#69000
1!
b110 )
b110 *
b110 +
b110 ,
b110 -
b0 /!
10
b0 1!
12
b110 5!
b111 6!
b1 8
b1 ;
1=
b110 =!
b111 >!
b0 E!
b0 G!
b0 V!
b0 W!
b110 `!
b111 a!
b110 h!
b111 i!
b110 k
b111 l
b0 p!
b0 r!
b0 s
#70000
0!
00
#71000
1!
b0 %
b0 &
b1010 (!
b111 )
b0 )!
b111 *
b111 +
b0 +!
b0 +"
b111 ,
b0 ,"
b111 -
b0 -"
b1010 .!
10
02
b0 2!
13
b111 5!
b1000 6!
b10 8
1:
b0 ;
0=
b111 =!
b1000 >!
b0 E!
b0 G!
b0 I!
b0 J!
b0 N!
b0 R!
b0 U!
b0 V!
b0 W!
b111 `!
b1000 a!
b111 h!
b1000 i!
b111 k
b1000 l
b0 p!
b0 r!
b0 s
b0 t!
b0 u!
b0 v
b0 w
b0 y!
b0 }!
#72000
0!
00
#73000
1!
b0 )
b0 *
b0 +
b0 ,
b0 -
b1010 /!
10
b1010 1!
12
b0 5!
b0 6!
b11 8
b1 ;
1=
b0 =!
b0 >!
b0 E!
b0 G!
b0 V!
b0 W!
b0 `!
b0 a!
b0 h!
b0 i!
b0 k
b0 l
b0 p!
b0 r!
b0 s
#74000
0!
00
#75000
1!
b0 (!
b1010 )!
b1010 +!
b0 ,"
b0 -"
b0 .!
10
02
b1010 2!
03
14
b0 5!
b1 6!
17
b0 8
0:
b0 ;
0=
b0 =!
b1 >!
b0 E!
b0 G!
b0 V!
b0 W!
b1111 X
b1111 Y
b0 `!
b1 a!
b0 h!
b1 i!
b0 k
b1 l
b0 v
b0 w
#76000
0!
00
#77000
1!
b1 )
b1 *
b1 +
b1 ,
b1 -
b0 /!
10
b0 1!
12
b1 5!
b10 6!
b1 8
b1 ;
1=
b1 =!
b10 >!
b0 E!
b0 G!
b0 V!
b0 W!
b1 `!
b10 a!
b1 h!
b10 i!
b1 k
b10 l
b0 p!
b0 r!
b0 s
#78000
0!
00
