verilog/viejos/coeff/coeff.sim/sim_1/behav/xsim/coeff_tb.vcd
$date
   Thu Aug 15 17:52:04 2019
$end
$version
  2019.1
$end
$timescale
  1ps
$end
$scope module coeff_tb $end
$var reg 1 ! clk $end
$var reg 1 " rst $end
$var wire 4 # coeff_out [3:0] $end
$var wire 32 $ coeff_s [31:0] $end
$var parameter 32 % Nbits [31:0] $end
$var parameter 32 & N [31:0] $end
$scope module dut $end
$var wire 1 ' rst $end
$var wire 32 $ coeff_s [31:0] $end
$var wire 1 ( clk $end
$var reg 4 ) coeff_out [3:0] $end
$var reg 23 * index [22:0] $end
$var wire 32 + coeff [31:0] $end
$var parameter 32 , Nbits [31:0] $end
$var parameter 32 - N [31:0] $end
$scope module coefficientes $end
$var reg 32 . coeff_data [31:0] $end
$var parameter 32 / Nbits [31:0] $end
$var parameter 32 0 N [31:0] $end
$upscope $end
$upscope $end
$upscope $end
$enddefinitions $end
#0
$dumpvars
0!
0"
b0 #
b10000001000110100010101100111 $
b10 %
b1000 &
1'
0(
b0 )
b0 *
b10000001000110100010101100111 +
b10 ,
b1000 -
b10000001000110100010101100111 .
b10 /
b1000 0
$end
#19000
1!
b1 #
0'
1(
b1 )
b1 *
#20000
0!
0(
#21000
1!
b0 #
1(
b0 )
b10 *
#22000
0!
0(
#23000
1!
b10 #
1(
b10 )
b11 *
#24000
0!
0(
#25000
1!
b11 #
1(
b11 )
b100 *
#26000
0!
0(
#27000
1!
b100 #
1(
b100 )
b101 *
#28000
0!
0(
#29000
1!
b101 #
1(
b101 )
b110 *
#30000
0!
0(
#31000
1!
b110 #
1(
b110 )
b111 *
#32000
0!
0(
#33000
1!
b111 #
1(
b111 )
b1000 *
#34000
0!
0(
#35000
1!
b1 #
1(
b1 )
b0 *
#36000
0!
0(
#37000
1!
1(
b1 )
b1 *
#38000
0!
0(
#39000
1!
b0 #
1(
b0 )
b10 *
#40000
0!
0(
#41000
1!
b10 #
1(
b10 )
b11 *
#42000
0!
0(
#43000
1!
b11 #
1(
b11 )
b100 *
#44000
0!
0(
#45000
1!
b100 #
1(
b100 )
b101 *
#46000
0!
0(
#47000
1!
b101 #
1(
b101 )
b110 *
#48000
0!
0(
#49000
1!
b110 #
1(
b110 )
b111 *
#50000
0!
0(
#51000
1!
b111 #
1(
b111 )
b1000 *
#52000
0!
0(
#53000
1!
b1 #
1(
b1 )
b0 *
#54000
0!
0(
#55000
1!
1(
b1 )
b1 *
#56000
0!
0(
#57000
1!
b0 #
1(
b0 )
b10 *
#58000
0!
0(
#59000
1!
b10 #
1(
b10 )
b11 *
#60000
0!
0(
#61000
1!
b11 #
1(
b11 )
b100 *
#62000
0!
0(
#63000
1!
b100 #
1(
b100 )
b101 *
#64000
0!
0(
#65000
1!
b101 #
1(
b101 )
b110 *
#66000
0!
0(
#67000
1!
b110 #
1(
b110 )
b111 *
#68000
0!
0(
#69000
1!
b111 #
1(
b111 )
b1000 *
#70000
0!
0(
#71000
1!
b1 #
1(
b1 )
b0 *
#72000
0!
0(
#73000
1!
1(
b1 )
b1 *
#74000
0!
0(
#75000
1!
b0 #
1(
b0 )
b10 *
#76000
0!
0(
#77000
1!
b10 #
1(
b10 )
b11 *
#78000
0!
0(
#79000
1!
b11 #
1(
b11 )
b100 *
#80000
0!
0(
#81000
1!
b100 #
1(
b100 )
b101 *
#82000
0!
0(
#83000
1!
b101 #
1(
b101 )
b110 *
#84000
0!
0(
#85000
1!
b110 #
1(
b110 )
b111 *
#86000
0!
0(
#87000
1!
b111 #
1(
b111 )
b1000 *
#88000
0!
0(
#89000
1!
b1 #
1(
b1 )
b0 *
#90000
0!
0(
#91000
1!
1(
b1 )
b1 *
#92000
0!
0(
#93000
1!
b0 #
1(
b0 )
b10 *
#94000
0!
0(
#95000
1!
b10 #
1(
b10 )
b11 *
#96000
0!
0(
#97000
1!
b11 #
1(
b11 )
b100 *
#98000
0!
0(
#99000
1!
b100 #
1(
b100 )
b101 *
#100000
0!
0(
#101000
1!
b101 #
1(
b101 )
b110 *
#102000
0!
0(
#103000
1!
b110 #
1(
b110 )
b111 *
#104000
0!
0(
#105000
1!
b111 #
1(
b111 )
b1000 *
#106000
0!
0(
#107000
1!
b1 #
1(
b1 )
b0 *
#108000
0!
0(
#109000
1!
1(
b1 )
b1 *
#110000
0!
0(
#111000
1!
b0 #
1(
b0 )
b10 *
#112000
0!
0(
#113000
1!
b10 #
1(
b10 )
b11 *
#114000
0!
0(
#115000
1!
b11 #
1(
b11 )
b100 *
#116000
0!
0(
#117000
1!
b100 #
1(
b100 )
b101 *
#118000
0!
0(
#119000
1!
b101 #
1(
b101 )
b110 *
#120000
0!
0(
#121000
1!
b110 #
1(
b110 )
b111 *
#122000
0!
0(
#123000
1!
b111 #
1(
b111 )
b1000 *
#124000
0!
0(
#125000
1!
b1 #
1(
b1 )
b0 *
#126000
0!
0(
#127000
1!
1(
b1 )
b1 *
#128000
0!
0(
#129000
1!
b0 #
1(
b0 )
b10 *
#130000
0!
0(
#131000
1!
b10 #
1(
b10 )
b11 *
#132000
0!
0(
#133000
1!
b11 #
1(
b11 )
b100 *
#134000
0!
0(
#135000
1!
b100 #
1(
b100 )
b101 *
#136000
0!
0(
#137000
1!
b101 #
1(
b101 )
b110 *
#138000
0!
0(
#139000
1!
b110 #
1(
b110 )
b111 *
#140000
0!
0(
#141000
1!
b111 #
1(
b111 )
b1000 *
#142000
0!
0(
#143000
1!
b1 #
1(
b1 )
b0 *
#144000
0!
0(
#145000
1!
1(
b1 )
b1 *
#146000
0!
0(
#147000
1!
b0 #
1(
b0 )
b10 *
#148000
0!
0(
#149000
1!
b10 #
1(
b10 )
b11 *
#150000
0!
0(
#151000
1!
b11 #
1(
b11 )
b100 *
#152000
0!
0(
#153000
1!
b100 #
1(
b100 )
b101 *
#154000
0!
0(
#155000
1!
b101 #
1(
b101 )
b110 *
#156000
0!
0(
#157000
1!
b110 #
1(
b110 )
b111 *
#158000
0!
0(
#159000
1!
b111 #
1(
b111 )
b1000 *
#160000
0!
0(
#161000
1!
b1 #
1(
b1 )
b0 *
#162000
0!
0(
#163000
1!
1(
b1 )
b1 *
#164000
0!
0(
#165000
1!
b0 #
1(
b0 )
b10 *
#166000
0!
0(
#167000
1!
b10 #
1(
b10 )
b11 *
#168000
0!
0(
#169000
1!
b11 #
1(
b11 )
b100 *
#170000
0!
0(
#171000
1!
b100 #
1(
b100 )
b101 *
#172000
0!
0(
#173000
1!
b101 #
1(
b101 )
b110 *
#174000
0!
0(
#175000
1!
b110 #
1(
b110 )
b111 *
#176000
0!
0(
#177000
1!
b111 #
1(
b111 )
b1000 *
#178000
0!
0(
#179000
1!
b1 #
1(
b1 )
b0 *
#180000
0!
0(
#181000
1!
1(
b1 )
b1 *
#182000
0!
0(
#183000
1!
b0 #
1(
b0 )
b10 *
#184000
0!
0(
#185000
1!
b10 #
1(
b10 )
b11 *
#186000
0!
0(
#187000
1!
b11 #
1(
b11 )
b100 *
#188000
0!
0(
#189000
1!
b100 #
1(
b100 )
b101 *
#190000
0!
0(
#191000
1!
b101 #
1(
b101 )
b110 *
#192000
0!
0(
#193000
1!
b110 #
1(
b110 )
b111 *
#194000
0!
0(
#195000
1!
b111 #
1(
b111 )
b1000 *
#196000
0!
0(
#197000
1!
b1 #
1(
b1 )
b0 *
#198000
0!
0(
#199000
1!
1(
b1 )
b1 *
#200000
0!
0(
#201000
1!
b0 #
1(
b0 )
b10 *
#202000
0!
0(
#203000
1!
b10 #
1(
b10 )
b11 *
#204000
0!
0(
#205000
1!
b11 #
1(
b11 )
b100 *
#206000
0!
0(
#207000
1!
b100 #
1(
b100 )
b101 *
#208000
0!
0(
#209000
1!
b101 #
1(
b101 )
b110 *
#210000
0!
0(
#211000
1!
b110 #
1(
b110 )
b111 *
#212000
0!
0(
#213000
1!
b111 #
1(
b111 )
b1000 *
#214000
0!
0(
#215000
1!
b1 #
1(
b1 )
b0 *
#216000
0!
0(
#217000
1!
1(
b1 )
b1 *
