verilog/cordic/cordic.sim/sim_1/behav/xsim/simulate.log
Vivado Simulator 2019.1
Time resolution is 1 ps
c r s cos      sin
- - - -------- --------
0 0 0 xxxxxxxx xxxxxxxx xxxxxxxx
1 0 0 xxxxxxxx xxxxxxxx xxxxxxxx
0 0 0 xxxxxxxx xxxxxxxx xxxxxxxx
0 1 0 00000000 00000000 00000000
1 1 0 00000000 00000000 00000000
0 1 0 00000000 00000000 00000000
1 1 0 00000000 00000000 00000000
1 0 0 00000000 00000000 00000000
0 0 0 00000000 00000000 00000000
1 0 0 00000000 00000000 00000000
0 0 0 00000000 00000000 00000000
1 0 0 00000000 00000000 00000000
1 0 1 00000000 00000000 00000000
0 0 1 00000000 00000000 00000000
1 0 1 26dd3b6a 00000000 00000000
1 0 0 26dd3b6a 00000000 00000000
0 0 0 26dd3b6a 00000000 00000000
1 0 0 26dd3b6a 26dd3b6a cdbc0957
0 0 0 26dd3b6a 26dd3b6a cdbc0957
1 0 0 3a4bd91f 136e9db5 eb68705c
0 0 0 3a4bd91f 136e9db5 eb68705c
1 0 0 3f27808c 04dba76e fb162b59
0 0 0 3f27808c 04dba76e fb162b59
1 0 0 3fc2f579 fcf6b75d 030b9a00
0 0 0 3fc2f579 fcf6b75d 030b9a00
1 0 0 3ff38a04 00f2e6b4 ff0cee89
0 0 0 3ff38a04 00f2e6b4 ff0cee89
1 0 0 3ffb2139 fef34a64 010cc3e5
0 0 0 3ffb2139 fef34a64 010cc3e5
1 0 0 3fff5410 fff336e8 000cc93a
0 0 0 3fff5410 fff336e8 000cc93a
1 0 0 3fff6da3 00733590 ff8cc9e5
0 0 0 3fff6da3 00733590 ff8cc9e5
1 0 0 3fffe0d8 00333623 ffccc9d0
0 0 0 3fffe0d8 00333623 ffccc9d0
1 0 0 3ffffa73 00133633 ffecc9cd
0 0 0 3ffffa73 00133633 ffecc9cd
1 0 0 3fffff40 00033635 fffcc9cd
0 0 0 3fffff40 00033635 fffcc9cd
1 0 0 3fffffa6 fffb3636 0004c9cd
0 0 0 3fffffa6 fffb3636 0004c9cd
1 0 0 3ffffff3 ffff3635 0000c9cd
0 0 0 3ffffff3 ffff3635 0000c9cd
1 0 0 3ffffffa 00013634 fffec9cd
0 0 0 3ffffffa 00013634 fffec9cd
1 0 0 3ffffffe 00003635 ffffc9cd
0 0 0 3ffffffe 00003635 ffffc9cd
1 0 0 3ffffffe ffffb636 000049cd
0 0 0 3ffffffe ffffb636 000049cd
1 0 0 3fffffff fffff635 000009cd
0 0 0 3fffffff fffff635 000009cd
1 0 0 40000000 00001634 ffffe9cd
0 0 0 40000000 00001634 ffffe9cd
1 0 0 40000000 00000634 fffff9cd
0 0 0 40000000 00000634 fffff9cd
1 0 0 40000000 fffffe34 000001cd
0 0 0 40000000 fffffe34 000001cd
1 0 0 40000001 00000234 fffffdcd
0 0 0 40000001 00000234 fffffdcd
1 0 0 40000001 00000034 ffffffcd
0 0 0 40000001 00000034 ffffffcd
1 0 0 40000001 ffffff34 000000cd
0 0 0 40000001 ffffff34 000000cd
1 0 0 40000002 ffffffb4 0000004d
0 0 0 40000002 ffffffb4 0000004d
1 0 0 40000003 fffffff4 0000000d
0 0 0 40000003 fffffff4 0000000d
1 0 0 40000004 00000014 ffffffed
0 0 0 40000004 00000014 ffffffed
1 0 0 40000004 00000004 fffffffd
0 0 0 40000004 00000004 fffffffd
1 0 0 40000004 fffffffc 00000005
0 0 0 40000004 fffffffc 00000005
1 0 0 40000005 00000000 00000001
0 0 0 40000005 00000000 00000001
1 0 0 40000005 00000002 ffffffff
0 0 0 40000005 00000002 ffffffff
1 0 0 40000005 00000001 00000000
0 0 0 40000005 00000001 00000000
1 0 0 40000005 00000001 00000000
0 0 0 40000005 00000001 00000000
1 0 0 40000005 00000001 00000000
0 0 0 40000005 00000001 00000000
1 0 0 40000005 00000001 00000000
0 0 0 40000005 00000001 00000000
1 0 0 40000005 00000001 00000000
$finish called at time : 407 ns : File "C:/fft/cordic/cordic.srcs/sim_1/new/cordic_tb.v" Line 55
